Descrição e Visualização de Dados - 2 Processamento de dados
…
O comando acima importa para o R os dados da tabela denominada Reservatorios_Parana_parcial.csv e cria um objeto denominado res contendo as informações dos arquivo. A partir de agora, qualquer modificação que fizermos no objeto res, não irá alterar o arquivo .csv original.

Vamos entender alguns argumentos do comando read_delim():

delim = ',': utilizado para dizer ao R que cada coluna na base de dados está separada das demais por uma vírgula. Se no arquivo .csv as colunas estivessem separadas por ponto-e-vígula, deveríamos escrever delim = ';'.

decimal_mark = '.': informa que o símbolo ponto é utilizado como um separador decimal. Se no arquivo .csv os números decimais utilizassem a vírgula, o argumento deveria ser decimal_mark = ','.

encoding = 'latin1': indica a forma de codificação. A necessidade deste argumento depende do sistema operacional de seu computador. Outras formas de codificação além de são UTF-8, ISO-8859-1,além de outras. Geralmente, o argumento é necessário quando existem caracteres especiais na base de dados como acentos e cedilhas. Como recomendação, é interessante evitar o uso destes tipos de caracteres sempre que possível.

Podemos visualizar a base de dados no RStudio digitando:

res

# A tibble: 31 × 11
   Reservato…¹ Bacia Fecha…²   Area Trofia    pH Condu…³ Alcal…⁴ P.total Riqueza
   <chr>       <chr>   <dbl>  <dbl> <chr>  <dbl>   <dbl>   <dbl>   <dbl>   <dbl>
 1 Cavernoso   Igua…    1965   2.9  Oligo…   7.4    33.1   140.      7.8      18
 2 Curucaca    Igua…    1982   2    Oligo…   7      32.4   126.      4.7      16
 3 Foz do Are… Igua…    1980 139    Oligo…   7.3    35.5    97      14.3      19
 4 Irai        Igua…    2000  15    Eutró…   6.9    50.2     3.3    53.4      12
 5 JMF         Igua…    1970   0.45 Mesot…   7.3    40.2     3.7    41.2      18
 6 Jordao      Igua…    1996   3.4  Oligo…   7.1    23.7   153.      3.3      17
 7 Passauna    Igua…    1978  14    Oligo…   8.8   126.    526      15.2      11
 8 Piraquara   Igua…    1979   3.3  Oligo…   7.1    22.8    50.7     4.5       8
 9 Salto Caxi… Igua…    1998 124    Oligo…   7.3    39.6   106      12.1      21
10 Salto do V… Igua…    1959   2.9  Oligo…   6.5    23.2   279      11         8
# … with 21 more rows, 1 more variable: CPUE <dbl>, and abbreviated variable
#   names ¹​Reservatorio, ²​Fechamento, ³​Condutividade, ⁴​Alcalinidade
…
Existem dois tipos de dados: chr identificando que a coluna contém uma variável qualitativa e dbl, identificando que a coluna contém uma variável quantitativa.

2.6 Reordenando as linhas da base de dados

A tabela contém uma coluna denominada Fechamento, que mostra o ano em que o reservatório foi formado. Vamos visualizar em ordem crescente do ano de formação, do mais antigo para o mais novo:

res %>% 
  arrange(Fechamento)

# A tibble: 31 × 11
   Reservatorio Bacia Fecha…¹  Area Trofia    pH Condu…² Alcal…³ P.total Riqueza
   <chr>        <chr>   <dbl> <dbl> <chr>  <dbl>   <dbl>   <dbl>   <dbl>   <dbl>
 1 Alagados     Tiba…    1909  7.2  Oligo…   7.6    41.7   172.     19.9       7
 2 Vossoroca    Lito…    1949  5.1  Mesot…   7.3    39.8   156      21.9      14
 3 Guaricana    Lito…    1957  7    Oligo…   7.4    27.9    83.7    12.4      12
 4 Salto Grande Para…    1958 12    Oligo…   7.1    62.3   230.     10.3      24
 5 Apucaraninha Tiba…    1958 NA    <NA>    NA      NA      NA      NA        10
 6 Salto do Vau Igua…    1959  2.9  Oligo…   6.5    23.2   279      11         8
 7 Melissa      Piri…    1962  0.1  Eutró…   6.8    34      68.4    66.9      12
 8 Mourao       Ivai     1964 11.3  Oligo…   8.1    23.3    56.6     7.1      15
 9 Cavernoso    Igua…    1965  2.9  Oligo…   7.4    33.1   140.      7.8      18
10 JMF          Igua…    1970  0.45 Mesot…   7.3    40.2     3.7    41.2      18
# … with 21 more rows, 1 more variable: CPUE <dbl>, and abbreviated variable
#   names ¹​Fechamento, ²​Condutividade, ³​Alcalinidade
…
